Homework 3
…
# Change column names
glass_col = c("Id", "RI", "Na", "Mg", "Al", "Si", "K", "Ca", "Ba", "Fe", "Type_of_Glass")
colnames(glass_data) <- glass_col

glass_data

# A tibble: 213 × 11
      Id    RI    Na    Mg    Al    Si     K    Ca    Ba    Fe Type_of_Glass
   <dbl> <dbl> <dbl> <dbl> <dbl> <dbl> <dbl> <dbl> <dbl> <dbl>         <dbl>
 1     2  1.52  13.9  3.6   1.36  72.7  0.48  7.83     0  0                1
 2     3  1.52  13.5  3.55  1.54  73.0  0.39  7.78     0  0                1
 3     4  1.52  13.2  3.69  1.29  72.6  0.57  8.22     0  0                1
 4     5  1.52  13.3  3.62  1.24  73.1  0.55  8.07     0  0                1
 5     6  1.52  12.8  3.61  1.62  73.0  0.64  8.07     0  0.26             1
 6     7  1.52  13.3  3.6   1.14  73.1  0.58  8.17     0  0                1
 7     8  1.52  13.2  3.61  1.05  73.2  0.57  8.24     0  0                1
 8     9  1.52  14.0  3.58  1.37  72.1  0.56  8.3      0  0                1
 9    10  1.52  13    3.6   1.36  73.0  0.57  8.4      0  0.11             1
10    11  1.52  12.7  3.46  1.56  73.2  0.67  8.09     0  0.24             1
# ℹ 203 more rows

# Create new column from Type of Glass and filter out specific rows (use chaining)
glass_data |>
  mutate(Type = ifelse(Type_of_Glass == 1, "building_windows_float_processed",
    ifelse(Type_of_Glass == 2, "building_windows_non_float_processed",
      ifelse(Type_of_Glass == 3, "vehicle_windows_float_processed",
        ifelse(Type_of_Glass == 4, "vehicle_windows_non_float_processed",
          ifelse(Type_of_Glass == 5, "containers",
            ifelse(Type_of_Glass == 6, "tableware",
              "headlamps"
            ))))))) |>
  filter(Fe < 0.2 & (Type == "tableware" | Type == "headlamps"))

# A tibble: 38 × 12
      Id    RI    Na    Mg    Al    Si     K    Ca    Ba    Fe Type_of_Glass
   <dbl> <dbl> <dbl> <dbl> <dbl> <dbl> <dbl> <dbl> <dbl> <dbl>         <dbl>
 1   177  1.52  14    2.39  1.56  72.4  0     9.57  0        0             6
 2   178  1.52  13.8  2.41  1.19  72.8  0     9.77  0        0             6
 3   179  1.52  14.5  2.24  1.62  72.4  0     9.26  0        0             6
 4   180  1.52  14.1  2.19  1.66  72.7  0     9.32  0        0             6
 5   181  1.51  14.4  1.74  1.54  74.6  0     7.59  0        0             6
 6   182  1.52  15.0  0.78  1.74  72.5  0     9.95  0        0             6
 7   183  1.52  14.2  0     2.09  72.7  0    10.9   0        0             6
 8   184  1.52  14.6  0     0.56  73.5  0    11.2   0        0             6
 9   185  1.51  17.4  0     0.34  75.4  0     6.65  0        0             6
10   186  1.51  13.7  3.2   1.81  72.8  1.76  5.43  1.19     0             7
# ℹ 28 more rows
# ℹ 1 more variable: Type <chr>
…
yeast_data

# A tibble: 1,484 × 10
   seq_name     mcg   gvh   alm   mit   erl   pox   vac   nuc class
   <chr>      <dbl> <dbl> <dbl> <dbl> <dbl> <dbl> <dbl> <dbl> <chr>
 1 ADT1_YEAST  0.58  0.61  0.47  0.13   0.5   0    0.48  0.22 MIT  
 2 ADT2_YEAST  0.43  0.67  0.48  0.27   0.5   0    0.53  0.22 MIT  
 3 ADT3_YEAST  0.64  0.62  0.49  0.15   0.5   0    0.53  0.22 MIT  
 4 AAR2_YEAST  0.58  0.44  0.57  0.13   0.5   0    0.54  0.22 NUC  
 5 AATM_YEAST  0.42  0.44  0.48  0.54   0.5   0    0.48  0.22 MIT  
 6 AATC_YEAST  0.51  0.4   0.56  0.17   0.5   0.5  0.49  0.22 CYT  
 7 ABC1_YEAST  0.5   0.54  0.48  0.65   0.5   0    0.53  0.22 MIT  
 8 BAF1_YEAST  0.48  0.45  0.59  0.2    0.5   0    0.58  0.34 NUC  
 9 ABF2_YEAST  0.55  0.5   0.66  0.36   0.5   0    0.49  0.22 MIT  
10 ABP1_YEAST  0.4   0.39  0.6   0.15   0.5   0    0.58  0.3  CYT  
# ℹ 1,474 more rows

# Drop and add new columns (use chaining)
yeast_data |>
  select(-seq_name, -nuc) |>
  group_by(class) |>
  mutate(across(
    where(is.numeric),
    list(mean = mean, median = median),
    .names = "{.col}_{.fn}"))

# A tibble: 1,484 × 22
# Groups:   class [10]
     mcg   gvh   alm   mit   erl   pox   vac class mcg_mean mcg_median gvh_mean
   <dbl> <dbl> <dbl> <dbl> <dbl> <dbl> <dbl> <chr>    <dbl>      <dbl>    <dbl>
 1  0.58  0.61  0.47  0.13   0.5   0    0.48 MIT      0.521       0.51    0.533
 2  0.43  0.67  0.48  0.27   0.5   0    0.53 MIT      0.521       0.51    0.533
 3  0.64  0.62  0.49  0.15   0.5   0    0.53 MIT      0.521       0.51    0.533
 4  0.58  0.44  0.57  0.13   0.5   0    0.54 NUC      0.452       0.45    0.456
 5  0.42  0.44  0.48  0.54   0.5   0    0.48 MIT      0.521       0.51    0.533
 6  0.51  0.4   0.56  0.17   0.5   0.5  0.49 CYT      0.481       0.48    0.470
 7  0.5   0.54  0.48  0.65   0.5   0    0.53 MIT      0.521       0.51    0.533
 8  0.48  0.45  0.59  0.2    0.5   0    0.58 NUC      0.452       0.45    0.456
 9  0.55  0.5   0.66  0.36   0.5   0    0.49 MIT      0.521       0.51    0.533
10  0.4   0.39  0.6   0.15   0.5   0    0.58 CYT      0.481       0.48    0.470
# ℹ 1,474 more rows
# ℹ 11 more variables: gvh_median <dbl>, alm_mean <dbl>, alm_median <dbl>,
#   mit_mean <dbl>, mit_median <dbl>, erl_mean <dbl>, erl_median <dbl>,
#   pox_mean <dbl>, pox_median <dbl>, vac_mean <dbl>, vac_median <dbl>

Task 3: Combining Excel and Delimited Data

Question 1

library(readxl)

# Read in excel data
white_wine_data <- read_excel("white-wine.xlsx", 
                            sheet = excel_sheets("white-wine.xlsx")[1])

white_wine_data

# A tibble: 4,898 × 12
   `fixed acidity` `volatile acidity` `citric acid` `residual sugar` chlorides
             <dbl>              <dbl>         <dbl>            <dbl>     <dbl>
 1               7               0.27          0.36             20.7     0.045
 2              63               0.3           0.34              1.6     0.049
 3              81               0.28          0.4               6.9     0.05 
 4              72               0.23          0.32              8.5     0.058
 5              72               0.23          0.32              8.5     0.058
 6              81               0.28          0.4               6.9     0.05 
 7              62               0.32          0.16              7       0.045
 8               7               0.27          0.36             20.7     0.045
 9              63               0.3           0.34              1.6     0.049
10              81               0.22          0.43              1.5     0.044
# ℹ 4,888 more rows
# ℹ 7 more variables: `free sulfur dioxide` <dbl>,
#   `total sulfur dioxide` <dbl>, density <dbl>, pH <dbl>, sulphates <dbl>,
#   alcohol <dbl>, quality <dbl>

Question 2

# Read in column names from sheet 2 of excel sheet
wine_colnames <- read_excel("white-wine.xlsx", 
                            sheet = excel_sheets("white-wine.xlsx")[2])

# Replace white_wine_data column names
colnames(white_wine_data) <- wine_colnames[[1]]

white_wine_data

# A tibble: 4,898 × 12
   fixed_acidity volatile_acidity citric_acid residual_sugar chlorides
           <dbl>            <dbl>       <dbl>          <dbl>     <dbl>
 1             7             0.27        0.36           20.7     0.045
 2            63             0.3         0.34            1.6     0.049
 3            81             0.28        0.4             6.9     0.05 
 4            72             0.23        0.32            8.5     0.058
 5            72             0.23        0.32            8.5     0.058
 6            81             0.28        0.4             6.9     0.05 
 7            62             0.32        0.16            7       0.045
 8             7             0.27        0.36           20.7     0.045
 9            63             0.3         0.34            1.6     0.049
10            81             0.22        0.43            1.5     0.044
# ℹ 4,888 more rows
# ℹ 7 more variables: free_sulfur_dioxide <dbl>, total_sulfur_dioxide <dbl>,
#   density <dbl>, pH <dbl>, sulphates <dbl>, alcohol <dbl>, quality <dbl>

Question 3

# Add new wine type column
white_wine_data<- white_wine_data |>
                    mutate(type = "white")

white_wine_data

# A tibble: 4,898 × 13
   fixed_acidity volatile_acidity citric_acid residual_sugar chlorides
           <dbl>            <dbl>       <dbl>          <dbl>     <dbl>
 1             7             0.27        0.36           20.7     0.045
 2            63             0.3         0.34            1.6     0.049
 3            81             0.28        0.4             6.9     0.05 
 4            72             0.23        0.32            8.5     0.058
 5            72             0.23        0.32            8.5     0.058
 6            81             0.28        0.4             6.9     0.05 
 7            62             0.32        0.16            7       0.045
 8             7             0.27        0.36           20.7     0.045
 9            63             0.3         0.34            1.6     0.049
10            81             0.22        0.43            1.5     0.044
# ℹ 4,888 more rows
# ℹ 8 more variables: free_sulfur_dioxide <dbl>, total_sulfur_dioxide <dbl>,
#   density <dbl>, pH <dbl>, sulphates <dbl>, alcohol <dbl>, quality <dbl>,
#   type <chr>
…
ℹ Use `spec()` to retrieve the full column specification for this data.
ℹ Specify the column types or set `show_col_types = FALSE` to quiet this message.

# Replace red_wine_data column names
colnames(red_wine_data) <- wine_colnames[[1]]

# Add new wine type column and cast columns to correct type
red_wine_data<- red_wine_data |>
                  mutate(type = "red", 
                  across(c("volatile_acidity", "citric_acid","chlorides", "density","sulphates"),
                         as.double))

red_wine_data

# A tibble: 1,599 × 13
   fixed_acidity volatile_acidity citric_acid residual_sugar chlorides
           <dbl>            <dbl>       <dbl>          <dbl>     <dbl>
 1            74             0.7         0                19     0.076
 2            78             0.88        0                26     0.098
 3            78             0.76        0.04             23     0.092
 4           112             0.28        0.56             19     0.075
 5            74             0.7         0                19     0.076
 6            74             0.66        0                18     0.075
 7            79             0.6         0.06             16     0.069
 8            73             0.65        0                12     0.065
 9            78             0.58        0.02              2     0.073
10            75             0.5         0.36             61     0.071
# ℹ 1,589 more rows
# ℹ 8 more variables: free_sulfur_dioxide <dbl>, total_sulfur_dioxide <dbl>,
#   density <dbl>, pH <dbl>, sulphates <dbl>, alcohol <dbl>, quality <dbl>,
#   type <chr>

Question 5

# Combine the datasets into one tibble
wine_data <- bind_rows(red_wine_data, white_wine_data)

wine_data

# A tibble: 6,497 × 13
   fixed_acidity volatile_acidity citric_acid residual_sugar chlorides
           <dbl>            <dbl>       <dbl>          <dbl>     <dbl>
 1            74             0.7         0                19     0.076
 2            78             0.88        0                26     0.098
 3            78             0.76        0.04             23     0.092
 4           112             0.28        0.56             19     0.075
 5            74             0.7         0                19     0.076
 6            74             0.66        0                18     0.075
 7            79             0.6         0.06             16     0.069
 8            73             0.65        0                12     0.065
 9            78             0.58        0.02              2     0.073
10            75             0.5         0.36             61     0.071
# ℹ 6,487 more rows
# ℹ 8 more variables: free_sulfur_dioxide <dbl>, total_sulfur_dioxide <dbl>,
#   density <dbl>, pH <dbl>, sulphates <dbl>, alcohol <dbl>, quality <dbl>,
#   type <chr>

Questions 6, 7, 8, & 9

# Perform specified data manipulation
wine_data |>
  filter(quality > 6.5, alcohol < 132) |>
  arrange(desc(quality)) |>
  select(contains("acid"), alcohol, type, quality) |>
  group_by(quality) |>
  mutate(mean_alcohol = mean(alcohol),
         sd_alcohol = sd(alcohol))

# A tibble: 1,198 × 8
# Groups:   quality [3]
   fixed_acidity volatile_acidity citric_acid alcohol type  quality mean_alcohol
           <dbl>            <dbl>       <dbl>   <dbl> <chr>   <dbl>        <dbl>
 1            91             0.27        0.45     104 white       9         122.
 2            66             0.36        0.29     124 white       9         122.
 3            74             0.24        0.36     125 white       9         122.
 4            69             0.36        0.34     127 white       9         122.
 5            71             0.26        0.49     129 white       9         122.
 6            79             0.35        0.46     128 red         8         102.
 7           103             0.32        0.45     126 red         8         102.
 8            56             0.85        0.05     129 red         8         102.
 9           126             0.31        0.72      98 red         8         102.
10            94             0.3         0.56     117 red         8         102.
# ℹ 1,188 more rows
# ℹ 1 more variable: sd_alcohol <dbl>
…
managers_data <- 
  tbl(con, "Managers") |>
  select(playerID, G, W, L) |>
  group_by(playerID) |>
  summarize(G_managed = sum(G, na.rm = TRUE),
            Total_W = sum(W, na.rm = TRUE),
            Total_L = sum(L, na.rm = TRUE)) |>
  collect() |>
  mutate(Win_Loss_Percentage = Total_W/G_managed) |>
  arrange(desc(Win_Loss_Percentage))

managers_data

# A tibble: 749 × 5
   playerID  G_managed Total_W Total_L Win_Loss_Percentage
   <chr>         <int>   <int>   <int>               <dbl>
 1 bensove01         1       1       0                   1
 2 burwebi01         1       1       0                   1
 3 cohenan01         1       1       0                   1
 4 ebeldi99          3       3       0                   1
 5 falkbi01          1       1       0                   1
 6 hardeme01         3       3       0                   1
 7 simmote01         1       1       0                   1
 8 steinte01         2       2       0                   1
 9 sukefcl01         2       2       0                   1
10 tamarjo01         1       1       0                   1
# ℹ 739 more rows

Question 7

inner_join(managers_data, as_tibble(fame_data), by = "playerID")

# A tibble: 97 × 9
   playerID  G_managed Total_W Total_L Win_Loss_Percentage nameFirst nameLast  
   <chr>         <int>   <int>   <int>               <dbl> <chr>     <chr>     
 1 simmote01         1       1       0               1     Ted       Simmons   
 2 wrighge01        85      59      25               0.694 George    Wright    
 3 spaldal01       126      78      47               0.619 Al        Spalding  
 4 mccarjo99      3487    2125    1333               0.609 Joe       McCarthy  
 5 comisch01      1410     840     541               0.596 Charlie   Comiskey  
 6 southbi01      1770    1044     704               0.590 Billy     Southworth
 7 seleefr99      2180    1284     862               0.589 Frank     Selee     
 8 chancfr01      1622     946     648               0.583 Frank     Chance    
 9 weaveea99      2541    1480    1060               0.582 Earl      Weaver    
10 lopezal01      2425    1410    1004               0.581 Al        Lopez     
# ℹ 87 more rows
# ℹ 2 more variables: yearID <int>, category <chr>
